('/Users/volkan/Library/Mobile '
 'Documents/com~apple~CloudDocs/Projects/AllDutchZipcodeFinder/_MACOS/build/All '
 'Dutch Zipcode Finder/PYZ-00.pyz',
 [('multiprocessing.popen_spawn_posix',
   '/Library/Frameworks/Python.framework/Versions/3.10/lib/python3.10/multiprocessing/popen_spawn_posix.py',
   'PYMODULE'),
  ('multiprocessing.resource_tracker',
   '/Library/Frameworks/Python.framework/Versions/3.10/lib/python3.10/multiprocessing/resource_tracker.py',
   'PYMODULE'),
  ('threading',
   '/Library/Frameworks/Python.framework/Versions/3.10/lib/python3.10/threading.py',
   'PYMODULE'),
  ('_threading_local',
   '/Library/Frameworks/Python.framework/Versions/3.10/lib/python3.10/_threading_local.py',
   'PYMODULE'),
  ('contextlib',
   '/Library/Frameworks/Python.framework/Versions/3.10/lib/python3.10/contextlib.py',
   'PYMODULE'),
  ('_strptime',
   '/Library/Frameworks/Python.framework/Versions/3.10/lib/python3.10/_strptime.py',
   'PYMODULE'),
  ('datetime',
   '/Library/Frameworks/Python.framework/Versions/3.10/lib/python3.10/datetime.py',
   'PYMODULE'),
  ('calendar',
   '/Library/Frameworks/Python.framework/Versions/3.10/lib/python3.10/calendar.py',
   'PYMODULE'),
  ('argparse',
   '/Library/Frameworks/Python.framework/Versions/3.10/lib/python3.10/argparse.py',
   'PYMODULE'),
  ('textwrap',
   '/Library/Frameworks/Python.framework/Versions/3.10/lib/python3.10/textwrap.py',
   'PYMODULE'),
  ('shutil',
   '/Library/Frameworks/Python.framework/Versions/3.10/lib/python3.10/shutil.py',
   'PYMODULE'),
  ('zipfile',
   '/Library/Frameworks/Python.framework/Versions/3.10/lib/python3.10/zipfile.py',
   'PYMODULE'),
  ('py_compile',
   '/Library/Frameworks/Python.framework/Versions/3.10/lib/python3.10/py_compile.py',
   'PYMODULE'),
  ('importlib.machinery',
   '/Library/Frameworks/Python.framework/Versions/3.10/lib/python3.10/importlib/machinery.py',
   'PYMODULE'),
  ('importlib',
   '/Library/Frameworks/Python.framework/Versions/3.10/lib/python3.10/importlib/__init__.py',
   'PYMODULE'),
  ('importlib.abc',
   '/Library/Frameworks/Python.framework/Versions/3.10/lib/python3.10/importlib/abc.py',
   'PYMODULE'),
  ('typing',
   '/Library/Frameworks/Python.framework/Versions/3.10/lib/python3.10/typing.py',
   'PYMODULE'),
  ('importlib._abc',
   '/Library/Frameworks/Python.framework/Versions/3.10/lib/python3.10/importlib/_abc.py',
   'PYMODULE'),
  ('importlib._bootstrap',
   '/Library/Frameworks/Python.framework/Versions/3.10/lib/python3.10/importlib/_bootstrap.py',
   'PYMODULE'),
  ('importlib._bootstrap_external',
   '/Library/Frameworks/Python.framework/Versions/3.10/lib/python3.10/importlib/_bootstrap_external.py',
   'PYMODULE'),
  ('importlib.metadata',
   '/Library/Frameworks/Python.framework/Versions/3.10/lib/python3.10/importlib/metadata/__init__.py',
   'PYMODULE'),
  ('importlib.metadata._itertools',
   '/Library/Frameworks/Python.framework/Versions/3.10/lib/python3.10/importlib/metadata/_itertools.py',
   'PYMODULE'),
  ('importlib.metadata._functools',
   '/Library/Frameworks/Python.framework/Versions/3.10/lib/python3.10/importlib/metadata/_functools.py',
   'PYMODULE'),
  ('importlib.metadata._collections',
   '/Library/Frameworks/Python.framework/Versions/3.10/lib/python3.10/importlib/metadata/_collections.py',
   'PYMODULE'),
  ('importlib.metadata._meta',
   '/Library/Frameworks/Python.framework/Versions/3.10/lib/python3.10/importlib/metadata/_meta.py',
   'PYMODULE'),
  ('importlib.metadata._adapters',
   '/Library/Frameworks/Python.framework/Versions/3.10/lib/python3.10/importlib/metadata/_adapters.py',
   'PYMODULE'),
  ('importlib.metadata._text',
   '/Library/Frameworks/Python.framework/Versions/3.10/lib/python3.10/importlib/metadata/_text.py',
   'PYMODULE'),
  ('email.message',
   '/Library/Frameworks/Python.framework/Versions/3.10/lib/python3.10/email/message.py',
   'PYMODULE'),
  ('email.policy',
   '/Library/Frameworks/Python.framework/Versions/3.10/lib/python3.10/email/policy.py',
   'PYMODULE'),
  ('email.contentmanager',
   '/Library/Frameworks/Python.framework/Versions/3.10/lib/python3.10/email/contentmanager.py',
   'PYMODULE'),
  ('email.quoprimime',
   '/Library/Frameworks/Python.framework/Versions/3.10/lib/python3.10/email/quoprimime.py',
   'PYMODULE'),
  ('email.headerregistry',
   '/Library/Frameworks/Python.framework/Versions/3.10/lib/python3.10/email/headerregistry.py',
   'PYMODULE'),
  ('email._header_value_parser',
   '/Library/Frameworks/Python.framework/Versions/3.10/lib/python3.10/email/_header_value_parser.py',
   'PYMODULE'),
  ('urllib',
   '/Library/Frameworks/Python.framework/Versions/3.10/lib/python3.10/urllib/__init__.py',
   'PYMODULE'),
  ('email.iterators',
   '/Library/Frameworks/Python.framework/Versions/3.10/lib/python3.10/email/iterators.py',
   'PYMODULE'),
  ('email.generator',
   '/Library/Frameworks/Python.framework/Versions/3.10/lib/python3.10/email/generator.py',
   'PYMODULE'),
  ('random',
   '/Library/Frameworks/Python.framework/Versions/3.10/lib/python3.10/random.py',
   'PYMODULE'),
  ('statistics',
   '/Library/Frameworks/Python.framework/Versions/3.10/lib/python3.10/statistics.py',
   'PYMODULE'),
  ('decimal',
   '/Library/Frameworks/Python.framework/Versions/3.10/lib/python3.10/decimal.py',
   'PYMODULE'),
  ('_pydecimal',
   '/Library/Frameworks/Python.framework/Versions/3.10/lib/python3.10/_pydecimal.py',
   'PYMODULE'),
  ('contextvars',
   '/Library/Frameworks/Python.framework/Versions/3.10/lib/python3.10/contextvars.py',
   'PYMODULE'),
  ('fractions',
   '/Library/Frameworks/Python.framework/Versions/3.10/lib/python3.10/fractions.py',
   'PYMODULE'),
  ('numbers',
   '/Library/Frameworks/Python.framework/Versions/3.10/lib/python3.10/numbers.py',
   'PYMODULE'),
  ('hashlib',
   '/Library/Frameworks/Python.framework/Versions/3.10/lib/python3.10/hashlib.py',
   'PYMODULE'),
  ('logging',
   '/Library/Frameworks/Python.framework/Versions/3.10/lib/python3.10/logging/__init__.py',
   'PYMODULE'),
  ('pickle',
   '/Library/Frameworks/Python.framework/Versions/3.10/lib/python3.10/pickle.py',
   'PYMODULE'),
  ('pprint',
   '/Library/Frameworks/Python.framework/Versions/3.10/lib/python3.10/pprint.py',
   'PYMODULE'),
  ('dataclasses',
   '/Library/Frameworks/Python.framework/Versions/3.10/lib/python3.10/dataclasses.py',
   'PYMODULE'),
  ('inspect',
   '/Library/Frameworks/Python.framework/Versions/3.10/lib/python3.10/inspect.py',
   'PYMODULE'),
  ('token',
   '/Library/Frameworks/Python.framework/Versions/3.10/lib/python3.10/token.py',
   'PYMODULE'),
  ('dis',
   '/Library/Frameworks/Python.framework/Versions/3.10/lib/python3.10/dis.py',
   'PYMODULE'),
  ('opcode',
   '/Library/Frameworks/Python.framework/Versions/3.10/lib/python3.10/opcode.py',
   'PYMODULE'),
  ('ast',
   '/Library/Frameworks/Python.framework/Versions/3.10/lib/python3.10/ast.py',
   'PYMODULE'),
  ('doctest',
   '/Library/Frameworks/Python.framework/Versions/3.10/lib/python3.10/doctest.py',
   'PYMODULE'),
  ('unittest',
   '/Library/Frameworks/Python.framework/Versions/3.10/lib/python3.10/unittest/__init__.py',
   'PYMODULE'),
  ('unittest.async_case',
   '/Library/Frameworks/Python.framework/Versions/3.10/lib/python3.10/unittest/async_case.py',
   'PYMODULE'),
  ('asyncio',
   '/Library/Frameworks/Python.framework/Versions/3.10/lib/python3.10/asyncio/__init__.py',
   'PYMODULE'),
  ('asyncio.unix_events',
   '/Library/Frameworks/Python.framework/Versions/3.10/lib/python3.10/asyncio/unix_events.py',
   'PYMODULE'),
  ('asyncio.log',
   '/Library/Frameworks/Python.framework/Versions/3.10/lib/python3.10/asyncio/log.py',
   'PYMODULE'),
  ('socket',
   '/Library/Frameworks/Python.framework/Versions/3.10/lib/python3.10/socket.py',
   'PYMODULE'),
  ('selectors',
   '/Library/Frameworks/Python.framework/Versions/3.10/lib/python3.10/selectors.py',
   'PYMODULE'),
  ('asyncio.windows_events',
   '/Library/Frameworks/Python.framework/Versions/3.10/lib/python3.10/asyncio/windows_events.py',
   'PYMODULE'),
  ('asyncio.windows_utils',
   '/Library/Frameworks/Python.framework/Versions/3.10/lib/python3.10/asyncio/windows_utils.py',
   'PYMODULE'),
  ('tempfile',
   '/Library/Frameworks/Python.framework/Versions/3.10/lib/python3.10/tempfile.py',
   'PYMODULE'),
  ('asyncio.selector_events',
   '/Library/Frameworks/Python.framework/Versions/3.10/lib/python3.10/asyncio/selector_events.py',
   'PYMODULE'),
  ('ssl',
   '/Library/Frameworks/Python.framework/Versions/3.10/lib/python3.10/ssl.py',
   'PYMODULE'),
  ('base64',
   '/Library/Frameworks/Python.framework/Versions/3.10/lib/python3.10/base64.py',
   'PYMODULE'),
  ('getopt',
   '/Library/Frameworks/Python.framework/Versions/3.10/lib/python3.10/getopt.py',
   'PYMODULE'),
  ('asyncio.proactor_events',
   '/Library/Frameworks/Python.framework/Versions/3.10/lib/python3.10/asyncio/proactor_events.py',
   'PYMODULE'),
  ('asyncio.base_subprocess',
   '/Library/Frameworks/Python.framework/Versions/3.10/lib/python3.10/asyncio/base_subprocess.py',
   'PYMODULE'),
  ('asyncio.threads',
   '/Library/Frameworks/Python.framework/Versions/3.10/lib/python3.10/asyncio/threads.py',
   'PYMODULE'),
  ('asyncio.subprocess',
   '/Library/Frameworks/Python.framework/Versions/3.10/lib/python3.10/asyncio/subprocess.py',
   'PYMODULE'),
  ('asyncio.streams',
   '/Library/Frameworks/Python.framework/Versions/3.10/lib/python3.10/asyncio/streams.py',
   'PYMODULE'),
  ('asyncio.queues',
   '/Library/Frameworks/Python.framework/Versions/3.10/lib/python3.10/asyncio/queues.py',
   'PYMODULE'),
  ('asyncio.runners',
   '/Library/Frameworks/Python.framework/Versions/3.10/lib/python3.10/asyncio/runners.py',
   'PYMODULE'),
  ('asyncio.events',
   '/Library/Frameworks/Python.framework/Versions/3.10/lib/python3.10/asyncio/events.py',
   'PYMODULE'),
  ('asyncio.base_events',
   '/Library/Frameworks/Python.framework/Versions/3.10/lib/python3.10/asyncio/base_events.py',
   'PYMODULE'),
  ('concurrent.futures',
   '/Library/Frameworks/Python.framework/Versions/3.10/lib/python3.10/concurrent/futures/__init__.py',
   'PYMODULE'),
  ('concurrent.futures.thread',
   '/Library/Frameworks/Python.framework/Versions/3.10/lib/python3.10/concurrent/futures/thread.py',
   'PYMODULE'),
  ('queue',
   '/Library/Frameworks/Python.framework/Versions/3.10/lib/python3.10/queue.py',
   'PYMODULE'),
  ('concurrent.futures.process',
   '/Library/Frameworks/Python.framework/Versions/3.10/lib/python3.10/concurrent/futures/process.py',
   'PYMODULE'),
  ('multiprocessing.synchronize',
   '/Library/Frameworks/Python.framework/Versions/3.10/lib/python3.10/multiprocessing/synchronize.py',
   'PYMODULE'),
  ('multiprocessing.heap',
   '/Library/Frameworks/Python.framework/Versions/3.10/lib/python3.10/multiprocessing/heap.py',
   'PYMODULE'),
  ('multiprocessing.process',
   '/Library/Frameworks/Python.framework/Versions/3.10/lib/python3.10/multiprocessing/process.py',
   'PYMODULE'),
  ('multiprocessing.queues',
   '/Library/Frameworks/Python.framework/Versions/3.10/lib/python3.10/multiprocessing/queues.py',
   'PYMODULE'),
  ('multiprocessing.connection',
   '/Library/Frameworks/Python.framework/Versions/3.10/lib/python3.10/multiprocessing/connection.py',
   'PYMODULE'),
  ('multiprocessing.resource_sharer',
   '/Library/Frameworks/Python.framework/Versions/3.10/lib/python3.10/multiprocessing/resource_sharer.py',
   'PYMODULE'),
  ('xmlrpc.client',
   '/Library/Frameworks/Python.framework/Versions/3.10/lib/python3.10/xmlrpc/client.py',
   'PYMODULE'),
  ('xmlrpc',
   '/Library/Frameworks/Python.framework/Versions/3.10/lib/python3.10/xmlrpc/__init__.py',
   'PYMODULE'),
  ('gzip',
   '/Library/Frameworks/Python.framework/Versions/3.10/lib/python3.10/gzip.py',
   'PYMODULE'),
  ('_compression',
   '/Library/Frameworks/Python.framework/Versions/3.10/lib/python3.10/_compression.py',
   'PYMODULE'),
  ('xml.parsers.expat',
   '/Library/Frameworks/Python.framework/Versions/3.10/lib/python3.10/xml/parsers/expat.py',
   'PYMODULE'),
  ('xml.parsers',
   '/Library/Frameworks/Python.framework/Versions/3.10/lib/python3.10/xml/parsers/__init__.py',
   'PYMODULE'),
  ('xml',
   '/Library/Frameworks/Python.framework/Versions/3.10/lib/python3.10/xml/__init__.py',
   'PYMODULE'),
  ('xml.sax.expatreader',
   '/Library/Frameworks/Python.framework/Versions/3.10/lib/python3.10/xml/sax/expatreader.py',
   'PYMODULE'),
  ('xml.sax.saxutils',
   '/Library/Frameworks/Python.framework/Versions/3.10/lib/python3.10/xml/sax/saxutils.py',
   'PYMODULE'),
  ('xml.sax',
   '/Library/Frameworks/Python.framework/Versions/3.10/lib/python3.10/xml/sax/__init__.py',
   'PYMODULE'),
  ('xml.sax.handler',
   '/Library/Frameworks/Python.framework/Versions/3.10/lib/python3.10/xml/sax/handler.py',
   'PYMODULE'),
  ('xml.sax._exceptions',
   '/Library/Frameworks/Python.framework/Versions/3.10/lib/python3.10/xml/sax/_exceptions.py',
   'PYMODULE'),
  ('xml.sax.xmlreader',
   '/Library/Frameworks/Python.framework/Versions/3.10/lib/python3.10/xml/sax/xmlreader.py',
   'PYMODULE'),
  ('urllib.parse',
   '/Library/Frameworks/Python.framework/Versions/3.10/lib/python3.10/urllib/parse.py',
   'PYMODULE'),
  ('http.client',
   '/Library/Frameworks/Python.framework/Versions/3.10/lib/python3.10/http/client.py',
   'PYMODULE'),
  ('http',
   '/Library/Frameworks/Python.framework/Versions/3.10/lib/python3.10/http/__init__.py',
   'PYMODULE'),
  ('email.parser',
   '/Library/Frameworks/Python.framework/Versions/3.10/lib/python3.10/email/parser.py',
   'PYMODULE'),
  ('email.feedparser',
   '/Library/Frameworks/Python.framework/Versions/3.10/lib/python3.10/email/feedparser.py',
   'PYMODULE'),
  ('hmac',
   '/Library/Frameworks/Python.framework/Versions/3.10/lib/python3.10/hmac.py',
   'PYMODULE'),
  ('concurrent.futures._base',
   '/Library/Frameworks/Python.framework/Versions/3.10/lib/python3.10/concurrent/futures/_base.py',
   'PYMODULE'),
  ('concurrent',
   '/Library/Frameworks/Python.framework/Versions/3.10/lib/python3.10/concurrent/__init__.py',
   'PYMODULE'),
  ('asyncio.trsock',
   '/Library/Frameworks/Python.framework/Versions/3.10/lib/python3.10/asyncio/trsock.py',
   'PYMODULE'),
  ('asyncio.staggered',
   '/Library/Frameworks/Python.framework/Versions/3.10/lib/python3.10/asyncio/staggered.py',
   'PYMODULE'),
  ('asyncio.tasks',
   '/Library/Frameworks/Python.framework/Versions/3.10/lib/python3.10/asyncio/tasks.py',
   'PYMODULE'),
  ('asyncio.base_tasks',
   '/Library/Frameworks/Python.framework/Versions/3.10/lib/python3.10/asyncio/base_tasks.py',
   'PYMODULE'),
  ('asyncio.locks',
   '/Library/Frameworks/Python.framework/Versions/3.10/lib/python3.10/asyncio/locks.py',
   'PYMODULE'),
  ('asyncio.mixins',
   '/Library/Frameworks/Python.framework/Versions/3.10/lib/python3.10/asyncio/mixins.py',
   'PYMODULE'),
  ('asyncio.sslproto',
   '/Library/Frameworks/Python.framework/Versions/3.10/lib/python3.10/asyncio/sslproto.py',
   'PYMODULE'),
  ('asyncio.transports',
   '/Library/Frameworks/Python.framework/Versions/3.10/lib/python3.10/asyncio/transports.py',
   'PYMODULE'),
  ('asyncio.protocols',
   '/Library/Frameworks/Python.framework/Versions/3.10/lib/python3.10/asyncio/protocols.py',
   'PYMODULE'),
  ('asyncio.futures',
   '/Library/Frameworks/Python.framework/Versions/3.10/lib/python3.10/asyncio/futures.py',
   'PYMODULE'),
  ('asyncio.exceptions',
   '/Library/Frameworks/Python.framework/Versions/3.10/lib/python3.10/asyncio/exceptions.py',
   'PYMODULE'),
  ('asyncio.coroutines',
   '/Library/Frameworks/Python.framework/Versions/3.10/lib/python3.10/asyncio/coroutines.py',
   'PYMODULE'),
  ('asyncio.base_futures',
   '/Library/Frameworks/Python.framework/Versions/3.10/lib/python3.10/asyncio/base_futures.py',
   'PYMODULE'),
  ('asyncio.format_helpers',
   '/Library/Frameworks/Python.framework/Versions/3.10/lib/python3.10/asyncio/format_helpers.py',
   'PYMODULE'),
  ('asyncio.constants',
   '/Library/Frameworks/Python.framework/Versions/3.10/lib/python3.10/asyncio/constants.py',
   'PYMODULE'),
  ('unittest.signals',
   '/Library/Frameworks/Python.framework/Versions/3.10/lib/python3.10/unittest/signals.py',
   'PYMODULE'),
  ('unittest.main',
   '/Library/Frameworks/Python.framework/Versions/3.10/lib/python3.10/unittest/main.py',
   'PYMODULE'),
  ('unittest.runner',
   '/Library/Frameworks/Python.framework/Versions/3.10/lib/python3.10/unittest/runner.py',
   'PYMODULE'),
  ('unittest.loader',
   '/Library/Frameworks/Python.framework/Versions/3.10/lib/python3.10/unittest/loader.py',
   'PYMODULE'),
  ('unittest.suite',
   '/Library/Frameworks/Python.framework/Versions/3.10/lib/python3.10/unittest/suite.py',
   'PYMODULE'),
  ('unittest.case',
   '/Library/Frameworks/Python.framework/Versions/3.10/lib/python3.10/unittest/case.py',
   'PYMODULE'),
  ('unittest._log',
   '/Library/Frameworks/Python.framework/Versions/3.10/lib/python3.10/unittest/_log.py',
   'PYMODULE'),
  ('unittest.result',
   '/Library/Frameworks/Python.framework/Versions/3.10/lib/python3.10/unittest/result.py',
   'PYMODULE'),
  ('unittest.util',
   '/Library/Frameworks/Python.framework/Versions/3.10/lib/python3.10/unittest/util.py',
   'PYMODULE'),
  ('pdb',
   '/Library/Frameworks/Python.framework/Versions/3.10/lib/python3.10/pdb.py',
   'PYMODULE'),
  ('pydoc',
   '/Library/Frameworks/Python.framework/Versions/3.10/lib/python3.10/pydoc.py',
   'PYMODULE'),
  ('webbrowser',
   '/Library/Frameworks/Python.framework/Versions/3.10/lib/python3.10/webbrowser.py',
   'PYMODULE'),
  ('http.server',
   '/Library/Frameworks/Python.framework/Versions/3.10/lib/python3.10/http/server.py',
   'PYMODULE'),
  ('socketserver',
   '/Library/Frameworks/Python.framework/Versions/3.10/lib/python3.10/socketserver.py',
   'PYMODULE'),
  ('mimetypes',
   '/Library/Frameworks/Python.framework/Versions/3.10/lib/python3.10/mimetypes.py',
   'PYMODULE'),
  ('html',
   '/Library/Frameworks/Python.framework/Versions/3.10/lib/python3.10/html/__init__.py',
   'PYMODULE'),
  ('html.entities',
   '/Library/Frameworks/Python.framework/Versions/3.10/lib/python3.10/html/entities.py',
   'PYMODULE'),
  ('pydoc_data.topics',
   '/Library/Frameworks/Python.framework/Versions/3.10/lib/python3.10/pydoc_data/topics.py',
   'PYMODULE'),
  ('pydoc_data',
   '/Library/Frameworks/Python.framework/Versions/3.10/lib/python3.10/pydoc_data/__init__.py',
   'PYMODULE'),
  ('tty',
   '/Library/Frameworks/Python.framework/Versions/3.10/lib/python3.10/tty.py',
   'PYMODULE'),
  ('sysconfig',
   '/Library/Frameworks/Python.framework/Versions/3.10/lib/python3.10/sysconfig.py',
   'PYMODULE'),
  ('_sysconfigdata__darwin_darwin',
   '/Library/Frameworks/Python.framework/Versions/3.10/lib/python3.10/_sysconfigdata__darwin_darwin.py',
   'PYMODULE'),
  ('_aix_support',
   '/Library/Frameworks/Python.framework/Versions/3.10/lib/python3.10/_aix_support.py',
   'PYMODULE'),
  ('_bootsubprocess',
   '/Library/Frameworks/Python.framework/Versions/3.10/lib/python3.10/_bootsubprocess.py',
   'PYMODULE'),
  ('_osx_support',
   '/Library/Frameworks/Python.framework/Versions/3.10/lib/python3.10/_osx_support.py',
   'PYMODULE'),
  ('platform',
   '/Library/Frameworks/Python.framework/Versions/3.10/lib/python3.10/platform.py',
   'PYMODULE'),
  ('plistlib',
   '/Library/Frameworks/Python.framework/Versions/3.10/lib/python3.10/plistlib.py',
   'PYMODULE'),
  ('pkgutil',
   '/Library/Frameworks/Python.framework/Versions/3.10/lib/python3.10/pkgutil.py',
   'PYMODULE'),
  ('zipimport',
   '/Library/Frameworks/Python.framework/Versions/3.10/lib/python3.10/zipimport.py',
   'PYMODULE'),
  ('runpy',
   '/Library/Frameworks/Python.framework/Versions/3.10/lib/python3.10/runpy.py',
   'PYMODULE'),
  ('shlex',
   '/Library/Frameworks/Python.framework/Versions/3.10/lib/python3.10/shlex.py',
   'PYMODULE'),
  ('glob',
   '/Library/Frameworks/Python.framework/Versions/3.10/lib/python3.10/glob.py',
   'PYMODULE'),
  ('code',
   '/Library/Frameworks/Python.framework/Versions/3.10/lib/python3.10/code.py',
   'PYMODULE'),
  ('codeop',
   '/Library/Frameworks/Python.framework/Versions/3.10/lib/python3.10/codeop.py',
   'PYMODULE'),
  ('bdb',
   '/Library/Frameworks/Python.framework/Versions/3.10/lib/python3.10/bdb.py',
   'PYMODULE'),
  ('cmd',
   '/Library/Frameworks/Python.framework/Versions/3.10/lib/python3.10/cmd.py',
   'PYMODULE'),
  ('difflib',
   '/Library/Frameworks/Python.framework/Versions/3.10/lib/python3.10/difflib.py',
   'PYMODULE'),
  ('__future__',
   '/Library/Frameworks/Python.framework/Versions/3.10/lib/python3.10/__future__.py',
   'PYMODULE'),
  ('_compat_pickle',
   '/Library/Frameworks/Python.framework/Versions/3.10/lib/python3.10/_compat_pickle.py',
   'PYMODULE'),
  ('bisect',
   '/Library/Frameworks/Python.framework/Versions/3.10/lib/python3.10/bisect.py',
   'PYMODULE'),
  ('email._encoded_words',
   '/Library/Frameworks/Python.framework/Versions/3.10/lib/python3.10/email/_encoded_words.py',
   'PYMODULE'),
  ('email.charset',
   '/Library/Frameworks/Python.framework/Versions/3.10/lib/python3.10/email/charset.py',
   'PYMODULE'),
  ('email.encoders',
   '/Library/Frameworks/Python.framework/Versions/3.10/lib/python3.10/email/encoders.py',
   'PYMODULE'),
  ('email.base64mime',
   '/Library/Frameworks/Python.framework/Versions/3.10/lib/python3.10/email/base64mime.py',
   'PYMODULE'),
  ('email._policybase',
   '/Library/Frameworks/Python.framework/Versions/3.10/lib/python3.10/email/_policybase.py',
   'PYMODULE'),
  ('email.header',
   '/Library/Frameworks/Python.framework/Versions/3.10/lib/python3.10/email/header.py',
   'PYMODULE'),
  ('email.errors',
   '/Library/Frameworks/Python.framework/Versions/3.10/lib/python3.10/email/errors.py',
   'PYMODULE'),
  ('email.utils',
   '/Library/Frameworks/Python.framework/Versions/3.10/lib/python3.10/email/utils.py',
   'PYMODULE'),
  ('email._parseaddr',
   '/Library/Frameworks/Python.framework/Versions/3.10/lib/python3.10/email/_parseaddr.py',
   'PYMODULE'),
  ('quopri',
   '/Library/Frameworks/Python.framework/Versions/3.10/lib/python3.10/quopri.py',
   'PYMODULE'),
  ('uu',
   '/Library/Frameworks/Python.framework/Versions/3.10/lib/python3.10/uu.py',
   'PYMODULE'),
  ('optparse',
   '/Library/Frameworks/Python.framework/Versions/3.10/lib/python3.10/optparse.py',
   'PYMODULE'),
  ('email',
   '/Library/Frameworks/Python.framework/Versions/3.10/lib/python3.10/email/__init__.py',
   'PYMODULE'),
  ('csv',
   '/Library/Frameworks/Python.framework/Versions/3.10/lib/python3.10/csv.py',
   'PYMODULE'),
  ('importlib.readers',
   '/Library/Frameworks/Python.framework/Versions/3.10/lib/python3.10/importlib/readers.py',
   'PYMODULE'),
  ('struct',
   '/Library/Frameworks/Python.framework/Versions/3.10/lib/python3.10/struct.py',
   'PYMODULE'),
  ('posixpath',
   '/Library/Frameworks/Python.framework/Versions/3.10/lib/python3.10/posixpath.py',
   'PYMODULE'),
  ('genericpath',
   '/Library/Frameworks/Python.framework/Versions/3.10/lib/python3.10/genericpath.py',
   'PYMODULE'),
  ('importlib.util',
   '/Library/Frameworks/Python.framework/Versions/3.10/lib/python3.10/importlib/util.py',
   'PYMODULE'),
  ('tarfile',
   '/Library/Frameworks/Python.framework/Versions/3.10/lib/python3.10/tarfile.py',
   'PYMODULE'),
  ('lzma',
   '/Library/Frameworks/Python.framework/Versions/3.10/lib/python3.10/lzma.py',
   'PYMODULE'),
  ('bz2',
   '/Library/Frameworks/Python.framework/Versions/3.10/lib/python3.10/bz2.py',
   'PYMODULE'),
  ('fnmatch',
   '/Library/Frameworks/Python.framework/Versions/3.10/lib/python3.10/fnmatch.py',
   'PYMODULE'),
  ('stat',
   '/Library/Frameworks/Python.framework/Versions/3.10/lib/python3.10/stat.py',
   'PYMODULE'),
  ('copy',
   '/Library/Frameworks/Python.framework/Versions/3.10/lib/python3.10/copy.py',
   'PYMODULE'),
  ('gettext',
   '/Library/Frameworks/Python.framework/Versions/3.10/lib/python3.10/gettext.py',
   'PYMODULE'),
  ('signal',
   '/Library/Frameworks/Python.framework/Versions/3.10/lib/python3.10/signal.py',
   'PYMODULE'),
  ('multiprocessing.util',
   '/Library/Frameworks/Python.framework/Versions/3.10/lib/python3.10/multiprocessing/util.py',
   'PYMODULE'),
  ('multiprocessing.forkserver',
   '/Library/Frameworks/Python.framework/Versions/3.10/lib/python3.10/multiprocessing/forkserver.py',
   'PYMODULE'),
  ('multiprocessing.context',
   '/Library/Frameworks/Python.framework/Versions/3.10/lib/python3.10/multiprocessing/context.py',
   'PYMODULE'),
  ('multiprocessing.popen_forkserver',
   '/Library/Frameworks/Python.framework/Versions/3.10/lib/python3.10/multiprocessing/popen_forkserver.py',
   'PYMODULE'),
  ('multiprocessing.sharedctypes',
   '/Library/Frameworks/Python.framework/Versions/3.10/lib/python3.10/multiprocessing/sharedctypes.py',
   'PYMODULE'),
  ('ctypes',
   '/Library/Frameworks/Python.framework/Versions/3.10/lib/python3.10/ctypes/__init__.py',
   'PYMODULE'),
  ('ctypes._endian',
   '/Library/Frameworks/Python.framework/Versions/3.10/lib/python3.10/ctypes/_endian.py',
   'PYMODULE'),
  ('multiprocessing.pool',
   '/Library/Frameworks/Python.framework/Versions/3.10/lib/python3.10/multiprocessing/pool.py',
   'PYMODULE'),
  ('multiprocessing.dummy',
   '/Library/Frameworks/Python.framework/Versions/3.10/lib/python3.10/multiprocessing/dummy/__init__.py',
   'PYMODULE'),
  ('multiprocessing.dummy.connection',
   '/Library/Frameworks/Python.framework/Versions/3.10/lib/python3.10/multiprocessing/dummy/connection.py',
   'PYMODULE'),
  ('multiprocessing.managers',
   '/Library/Frameworks/Python.framework/Versions/3.10/lib/python3.10/multiprocessing/managers.py',
   'PYMODULE'),
  ('multiprocessing.shared_memory',
   '/Library/Frameworks/Python.framework/Versions/3.10/lib/python3.10/multiprocessing/shared_memory.py',
   'PYMODULE'),
  ('secrets',
   '/Library/Frameworks/Python.framework/Versions/3.10/lib/python3.10/secrets.py',
   'PYMODULE'),
  ('multiprocessing.reduction',
   '/Library/Frameworks/Python.framework/Versions/3.10/lib/python3.10/multiprocessing/reduction.py',
   'PYMODULE'),
  ('multiprocessing.popen_fork',
   '/Library/Frameworks/Python.framework/Versions/3.10/lib/python3.10/multiprocessing/popen_fork.py',
   'PYMODULE'),
  ('multiprocessing.popen_spawn_win32',
   '/Library/Frameworks/Python.framework/Versions/3.10/lib/python3.10/multiprocessing/popen_spawn_win32.py',
   'PYMODULE'),
  ('subprocess',
   '/Library/Frameworks/Python.framework/Versions/3.10/lib/python3.10/subprocess.py',
   'PYMODULE'),
  ('multiprocessing.spawn',
   '/Library/Frameworks/Python.framework/Versions/3.10/lib/python3.10/multiprocessing/spawn.py',
   'PYMODULE'),
  ('multiprocessing',
   '/Library/Frameworks/Python.framework/Versions/3.10/lib/python3.10/multiprocessing/__init__.py',
   'PYMODULE'),
  ('tracemalloc',
   '/Library/Frameworks/Python.framework/Versions/3.10/lib/python3.10/tracemalloc.py',
   'PYMODULE'),
  ('stringprep',
   '/Library/Frameworks/Python.framework/Versions/3.10/lib/python3.10/stringprep.py',
   'PYMODULE'),
  ('_py_abc',
   '/Library/Frameworks/Python.framework/Versions/3.10/lib/python3.10/_py_abc.py',
   'PYMODULE'),
  ('pathlib',
   '/Library/Frameworks/Python.framework/Versions/3.10/lib/python3.10/pathlib.py',
   'PYMODULE'),
  ('ntpath',
   '/Library/Frameworks/Python.framework/Versions/3.10/lib/python3.10/ntpath.py',
   'PYMODULE'),
  ('tkinter',
   '/Library/Frameworks/Python.framework/Versions/3.10/lib/python3.10/tkinter/__init__.py',
   'PYMODULE'),
  ('tkinter.constants',
   '/Library/Frameworks/Python.framework/Versions/3.10/lib/python3.10/tkinter/constants.py',
   'PYMODULE'),
  ('urllib.request',
   '/Library/Frameworks/Python.framework/Versions/3.10/lib/python3.10/urllib/request.py',
   'PYMODULE'),
  ('getpass',
   '/Library/Frameworks/Python.framework/Versions/3.10/lib/python3.10/getpass.py',
   'PYMODULE'),
  ('nturl2path',
   '/Library/Frameworks/Python.framework/Versions/3.10/lib/python3.10/nturl2path.py',
   'PYMODULE'),
  ('ftplib',
   '/Library/Frameworks/Python.framework/Versions/3.10/lib/python3.10/ftplib.py',
   'PYMODULE'),
  ('netrc',
   '/Library/Frameworks/Python.framework/Versions/3.10/lib/python3.10/netrc.py',
   'PYMODULE'),
  ('http.cookiejar',
   '/Library/Frameworks/Python.framework/Versions/3.10/lib/python3.10/http/cookiejar.py',
   'PYMODULE'),
  ('urllib.response',
   '/Library/Frameworks/Python.framework/Versions/3.10/lib/python3.10/urllib/response.py',
   'PYMODULE'),
  ('urllib.error',
   '/Library/Frameworks/Python.framework/Versions/3.10/lib/python3.10/urllib/error.py',
   'PYMODULE'),
  ('os',
   '/Library/Frameworks/Python.framework/Versions/3.10/lib/python3.10/os.py',
   'PYMODULE'),
  ('string',
   '/Library/Frameworks/Python.framework/Versions/3.10/lib/python3.10/string.py',
   'PYMODULE')])
